TSE - Scoring Project
…
# Starting 31 Dec 2024, no more TSE access to WRDS 
# Instead we work with a downloaded snapshot 
# (mainly .rds files mimicking some WRDS/Compustat/CRSP database tables)

funda_db <- readRDS("wrds_data/compustat_all_light.rds")
funda_db %>%
  filter(grepl('APPLE INC', conm)) %>%
  select(gvkey, fyear, conm, at, wcap, re, ebit, lt, sale) %>%
  mutate(WCTA = wcap / at,
         RETA = re / at,
         EBTA = ebit / at,
         TLTA  = lt / at, # as a proxy for ME/TL
         SLTA = sale / at)

# A tibble: 52 × 14
   gvkey  fyear conm       at   wcap     re  ebit     lt  sale  WCTA  RETA  EBTA
   <chr>  <int> <chr>   <dbl>  <dbl>  <dbl> <dbl>  <dbl> <dbl> <dbl> <dbl> <dbl>
 1 001690  1980 APPLE…   65.4   16.3   14.5  23.6   39.4  117. 0.250 0.222 0.361
 2 001690  1981 APPLE…  255.   157.    54.1  66.1   77.5  335. 0.615 0.212 0.260
 3 001690  1982 APPLE…  358.   231.   116.  102.   101.   583. 0.647 0.324 0.286
 4 001690  1983 APPLE…  557.   340.   194.  130.   179.   983. 0.611 0.349 0.233
 5 001690  1984 APPLE…  789.   432.   256.   91.4  324.  1516. 0.548 0.324 0.116
 6 001690  1985 APPLE…  936.   527.   316.  147.   386.  1918. 0.563 0.337 0.157
 7 001690  1986 APPLE… 1160.   712.   467.  274.   466.  1902. 0.614 0.403 0.236
 8 001690  1987 APPLE… 1478.   829.   573.  371.   641.  2661. 0.561 0.387 0.251
 9 001690  1988 APPLE… 2082.   956.   777.  620.  1079.  4071. 0.459 0.373 0.298
10 001690  1989 APPLE… 2744.  1399.  1170.  634.  1258.  5284. 0.510 0.427 0.231
# ℹ 42 more rows
# ℹ 2 more variables: TLTA <dbl>, SLTA <dbl>
…
# # Use dplyr verbs with a remote database table (https://dbplyr.tidyverse.org/reference/tbl.src_dbi.html)
# funda_db <- tbl(wrds, in_schema("comp", "funda"))
funda_db %>%
  filter(grepl('APPLE INC', conm)) %>%
  select(gvkey, fyear, conm, at, wcap, re, ebit, lt, sale) %>%
  mutate(WCTA = wcap / at,
         RETA = re / at,
         EBTA = ebit / at,
         TLTA  = lt / at, # as a proxy for ME/TL
         SLTA = sale / at)

# A tibble: 52 × 14
   gvkey  fyear conm       at   wcap     re  ebit     lt  sale  WCTA  RETA  EBTA
   <chr>  <int> <chr>   <dbl>  <dbl>  <dbl> <dbl>  <dbl> <dbl> <dbl> <dbl> <dbl>
 1 001690  1980 APPLE…   65.4   16.3   14.5  23.6   39.4  117. 0.250 0.222 0.361
 2 001690  1981 APPLE…  255.   157.    54.1  66.1   77.5  335. 0.615 0.212 0.260
 3 001690  1982 APPLE…  358.   231.   116.  102.   101.   583. 0.647 0.324 0.286
 4 001690  1983 APPLE…  557.   340.   194.  130.   179.   983. 0.611 0.349 0.233
 5 001690  1984 APPLE…  789.   432.   256.   91.4  324.  1516. 0.548 0.324 0.116
 6 001690  1985 APPLE…  936.   527.   316.  147.   386.  1918. 0.563 0.337 0.157
 7 001690  1986 APPLE… 1160.   712.   467.  274.   466.  1902. 0.614 0.403 0.236
 8 001690  1987 APPLE… 1478.   829.   573.  371.   641.  2661. 0.561 0.387 0.251
 9 001690  1988 APPLE… 2082.   956.   777.  620.  1079.  4071. 0.459 0.373 0.298
10 001690  1989 APPLE… 2744.  1399.  1170.  634.  1258.  5284. 0.510 0.427 0.231
# ℹ 42 more rows
# ℹ 2 more variables: TLTA <dbl>, SLTA <dbl>
…
